3.2 Import Data as a SummarizedExperiment | Fluent statistical computing interfaces for biological data analysis
…
coldata <- read_csv(colfile) %>%
  dplyr::select(
    names,
    id = sample_id,
    line = line_id,
    condition = condition_name
  ) %>%
  dplyr::mutate(
    files = file.path(dir, "quants", names, "quant.sf.gz"),
    line = factor(line),
    condition = relevel(factor(condition), "naive")
  )
coldata

#> # A tibble: 24 x 5
#>    names      id     line  condition  files                                     
#>    <chr>      <chr>  <fct> <fct>      <chr>                                     
#>  1 SAMEA1038… diku_A diku… naive      /Library/Frameworks/R.framework/Versions/…
#>  2 SAMEA1038… diku_B diku… IFNg       /Library/Frameworks/R.framework/Versions/…
#>  3 SAMEA1038… diku_C diku… SL1344     /Library/Frameworks/R.framework/Versions/…
#>  4 SAMEA1038… diku_D diku… IFNg_SL13… /Library/Frameworks/R.framework/Versions/…
#>  5 SAMEA1038… eiwy_A eiwy… naive      /Library/Frameworks/R.framework/Versions/…
#>  6 SAMEA1038… eiwy_B eiwy… IFNg       /Library/Frameworks/R.framework/Versions/…
#>  7 SAMEA1038… eiwy_C eiwy… SL1344     /Library/Frameworks/R.framework/Versions/…
#>  8 SAMEA1038… eiwy_D eiwy… IFNg_SL13… /Library/Frameworks/R.framework/Versions/…
#>  9 SAMEA1038… fikt_A fikt… naive      /Library/Frameworks/R.framework/Versions/…
#> 10 SAMEA1038… fikt_B fikt… IFNg       /Library/Frameworks/R.framework/Versions/…
#> # … with 14 more rows
…
